Chapter 6 Interactive component | NYC School Survey
…
            NYC School Survey

Chapter 6 Interactive component

## # A tibble: 1,903 x 13
##    DBN    `School Name`     teacher_rr t_s_disagree t_s_agree t_agree t_disagree
##    <chr>  <chr>                  <dbl>        <dbl>     <dbl>   <dbl>      <dbl>
##  1 01M015 P.S. 015 ROBERTO~        100            1        85     235          2
##  2 01M019 P.S. 019 ASHER L~         93            2        95     284          7
##  3 01M020 P.S. 020 ANNA SI~         90            1        79     270         10
##  4 01M034 P.S. 034 FRANKLI~        100           10        83     275         41
##  5 01M063 THE STAR ACADEMY~        100            0        65     190          6
##  6 01M064 P.S. 064 ROBERT ~         96            2        83     205          9
##  7 01M110 P.S. 110 FLORENC~         77            1        31     132          9
##  8 01M134 P.S. 134 HENRIET~         93            4        39     178         19
##  9 01M140 P.S. 140 NATHAN ~         89            0        32     192         11
## 10 01M142 P.S. 142 AMALIA ~        100            0        95     310         10
## # ... with 1,893 more rows, and 6 more variables: parent_rr <dbl>,
## #   p_s_disagree <dbl>, p_s_agree <dbl>, p_agree <dbl>, p_disagree <dbl>,
## #   p_idk <dbl>
