Chapter 5 Results | NYC School Survey
…
## # A tibble: 9,145 x 7
##    DBN    name                      parent_rr teacher_rr student_rr aspect score
##    <chr>  <chr>                         <dbl>      <dbl>      <dbl> <chr>  <dbl>
##  1 01M015 P.S. 015 ROBERTO CLEMENTE        91        100         NA p_col~  4.1 
##  2 01M015 P.S. 015 ROBERTO CLEMENTE        91        100         NA p_eff~  4.19
##  3 01M015 P.S. 015 ROBERTO CLEMENTE        91        100         NA p_rig~  4.02
##  4 01M015 P.S. 015 ROBERTO CLEMENTE        91        100         NA p_fam~  4.18
##  5 01M015 P.S. 015 ROBERTO CLEMENTE        91        100         NA p_tru~  3.96
##  6 01M019 P.S. 019 ASHER LEVY             100         93         NA p_col~  4.53
##  7 01M019 P.S. 019 ASHER LEVY             100         93         NA p_eff~  4.51
##  8 01M019 P.S. 019 ASHER LEVY             100         93         NA p_rig~  4.8 
##  9 01M019 P.S. 019 ASHER LEVY             100         93         NA p_fam~  4.66
## 10 01M019 P.S. 019 ASHER LEVY             100         93         NA p_tru~  3.76
## # ... with 9,135 more rows

## # A tibble: 9,145 x 7
##    DBN    name                      parent_rr teacher_rr student_rr aspect score
##    <chr>  <chr>                         <dbl>      <dbl>      <dbl> <chr>  <dbl>
##  1 01M015 P.S. 015 ROBERTO CLEMENTE        91        100         NA s_col~  4.1 
##  2 01M015 P.S. 015 ROBERTO CLEMENTE        91        100         NA s_eff~  4.19
##  3 01M015 P.S. 015 ROBERTO CLEMENTE        91        100         NA s_rig~  4.02
##  4 01M015 P.S. 015 ROBERTO CLEMENTE        91        100         NA s_fam~  4.18
##  5 01M015 P.S. 015 ROBERTO CLEMENTE        91        100         NA s_tru~  3.96
##  6 01M019 P.S. 019 ASHER LEVY             100         93         NA s_col~  4.53
##  7 01M019 P.S. 019 ASHER LEVY             100         93         NA s_eff~  4.51
##  8 01M019 P.S. 019 ASHER LEVY             100         93         NA s_rig~  4.8 
##  9 01M019 P.S. 019 ASHER LEVY             100         93         NA s_fam~  4.66
## 10 01M019 P.S. 019 ASHER LEVY             100         93         NA s_tru~  3.76
## # ... with 9,135 more rows
